{"message":"Invalid unix timestamp in get method.","level":"error","timestamp":"2018-06-26T11:29:38.745Z"}
{"message":"Invalid unix timestamp in get method.","level":"error","timestamp":"2018-06-26T11:30:18.227Z"}
{"message":"Invalid unix timestamp in get method.","level":"error","timestamp":"2018-06-26T11:30:24.346Z"}
{"message":"Invalid unix timestamp in get method.","level":"error","timestamp":"2018-06-26T11:30:25.600Z"}
{"message":"Invalid unix timestamp in get method.","level":"error","timestamp":"2018-06-26T11:31:43.550Z"}
{"message":"Invalid unix timestamp in get method.","level":"error","timestamp":"2018-06-26T11:32:57.964Z"}
{"message":"Invalid unix timestamp in get method.","level":"error","timestamp":"2018-06-26T11:33:31.034Z"}
{"message":"Invalid unix timestamp in get method.","level":"error","timestamp":"2018-06-26T11:34:09.539Z"}
{"message":"Invalid unix timestamp in get method.","level":"error","timestamp":"2018-06-26T11:34:11.948Z"}
{"message":"Invalid unix timestamp in get method.","level":"error","timestamp":"2018-06-26T11:35:08.171Z"}
{"message":"Invalid unix timestamp in get method.","level":"error","timestamp":"2018-06-26T11:37:57.125Z"}
{"message":"Invalid unix timestamp in get method.","level":"error","timestamp":"2018-06-26T11:38:47.732Z"}
{"message":"Invalid unix timestamp in get method.","level":"error","timestamp":"2018-06-26T11:40:06.370Z"}
{"message":"Invalid unix timestamp in get method.","level":"error","timestamp":"2018-06-26T11:40:06.734Z"}
{"message":"Invalid unix timestamp in get method.","level":"error","timestamp":"2018-06-26T11:43:08.973Z"}
{"message":"Invalid unix timestamp in get method.","level":"error","timestamp":"2018-06-26T11:45:34.860Z"}
{"message":"Invalid unix timestamp in get method.","level":"error","timestamp":"2018-06-26T11:47:16.100Z"}
{"message":"Invalid unix timestamp in get method.","level":"error","timestamp":"2018-06-26T11:47:16.528Z"}
{"message":"Invalid unix timestamp in get method.","level":"error","timestamp":"2018-06-26T11:47:16.955Z"}
{"message":"Missing JSON Object in method post in post method.","level":"error","timestamp":"2018-06-26T11:51:59.541Z"}
{"message":"More than 1 Key in post method.","level":"error","timestamp":"2018-06-26T11:51:59.728Z"}
{"message":"Invalid unix timestamp in get method.","level":"error","timestamp":"2018-06-26T11:52:00.632Z"}
{"message":"Invalid unix timestamp in get method.","level":"error","timestamp":"2018-06-26T11:52:00.996Z"}
{"message":"Invalid unix timestamp in get method.","level":"error","timestamp":"2018-06-26T11:52:01.364Z"}
{"message":"Missing JSON Object in method post in post method.","level":"error","timestamp":"2018-06-26T11:53:33.809Z"}
{"message":"More than 1 Key in post method.","level":"error","timestamp":"2018-06-26T11:53:34.023Z"}
{"message":"Invalid unix timestamp in get method.","level":"error","timestamp":"2018-06-26T11:53:35.071Z"}
{"message":"Invalid unix timestamp in get method.","level":"error","timestamp":"2018-06-26T11:53:35.490Z"}
{"message":"Invalid unix timestamp in get method.","level":"error","timestamp":"2018-06-26T11:53:35.919Z"}
